<?xml version="1.0" encoding="UTF-8"?>
<session version="1.0">
<refactoring comment="Delete resource &apos;proj02&apos;" deleteContents="true" description="Delete resource &apos;proj02&apos;" element1="/proj02" flags="7" id="org.eclipse.ltk.core.refactoring.delete.resources" resources="1" stamp="1598758781389"/>
</session>