<?xml version="1.0" encoding="UTF-8"?>
<session version="1.0">
<refactoring comment="Copy element &apos;HbUtil.java&apos; to &apos;hb10cache/src/main/java/hb10cache&apos;&#x0A;- Original project: &apos;hb9&apos;&#x0A;- Destination element: &apos;hb10cache/src/main/java/hb10cache&apos;&#x0A;- Original element: &apos;hb9.HbUtil.java&apos;" description="Copy compilation unit" destination="=hb10cache/src\/main\/java&lt;hb10cache" element1="/src\/main\/java&lt;hb9{HbUtil.java" files="0" flags="589830" folders="0" id="org.eclipse.jdt.ui.copy" policy="org.eclipse.jdt.ui.copyResources" stamp="1586056525944" units="1" version="1.0"/>
</session>