INDEX VERSION 1.131+/home/sunbeam/Documents/workspace-sts-3.9.11.RELEASE/1.1.0/.metadata/.plugins/org.eclipse.jdt.core
2400525042.index
925982370.index
3246260392.index
3066711521.index
3567447275.index
1411514460.index
2399908430.index
2253745042.index
1638901615.index
1704734404.index
813341167.index
395302202.index
1415239138.index
5990989.index
2956317950.index
3613256614.index
3485262699.index
1142164162.index
2219693255.index
1140420677.index
538932871.index
944839195.index
2241341536.index
1580110088.index
1430078945.index
3530540584.index
821608291.index
2818640290.index
2744878784.index
3539432263.index
2359322674.index
1628687906.index
1001901072.index
3512161136.index
3883508318.index
1089239932.index
502732891.index
